{
    "fluentMethods": true,
    "relationships": [],
    "fields": [
        {
            "fieldName": "senderFio",
            "fieldType": "String"
        },
        {
            "fieldName": "receiverFio",
            "fieldType": "String"
        },
        {
            "fieldName": "cellPhone",
            "fieldType": "String"
        },
        {
            "fieldName": "homePhone",
            "fieldType": "String"
        }
    ],
    "changelogDate": "20171208214659",
    "dto": "no",
    "service": "no",
    "entityTableName": "customer",
    "jpaMetamodelFiltering": false,
    "pagination": "pagination"
}
